…
To get class predictions, call predict with type equal to “class”

``` r
# Create test data
test <- mlbench.circle(500, 2) %>%
  tibble::as_tibble()
colnames(test) <- c("X1", "X2", "Y")
test <- test %>%
  mutate(Y = as.numeric(Y))

yhat <- predict(object = model, new_data = test, type = "class")
yhat
#> # A tibble: 500 × 1
#>    .pred_class
#>    <fct>      
#>  1 2          
#>  2 1          
#>  3 1          
#>  4 2          
#>  5 2          
#>  6 2          
#>  7 1          
#>  8 1          
#>  9 2          
#> 10 1          
#> # ℹ 490 more rows
```

To get probabilities, call predict with type equal to “prob”

``` r
yhat <- predict(object = model, new_data = test, type = "prob")
yhat
#> # A tibble: 500 × 2
#>    .pred_1 .pred_2
#>      <dbl>   <dbl>
#>  1     0       1  
#>  2     0.6     0.4
#>  3     1       0  
#>  4     0       1  
#>  5     0       1  
#>  6     0       1  
#>  7     1       0  
#>  8     1       0  
#>  9     0       1  
#> 10     1       0  
#> # ℹ 490 more rows
```
…
